Runner004.class
steps/ItemsSteps.class
configuration/ConfigurationManager.class
Runner006.class
Runner003.class
steps/TestBase.class
Runner001.class
Runner002.class
session/SessionSingleton.class
runners/Runner.class
configuration/EnvironmentConfig.class
helpers/ApiHelper.class
session/Session.class
Runner005.class
