/Users/timothyloukas/Desktop/Project/3/restful-api/target/generated-test-sources/cucumber/Runner003.java
/Users/timothyloukas/Desktop/Project/3/restful-api/target/generated-test-sources/cucumber/Runner002.java
/Users/timothyloukas/Desktop/Project/3/restful-api/src/test/java/runners/Runner.java
/Users/timothyloukas/Desktop/Project/3/restful-api/src/test/java/session/SessionSingleton.java
/Users/timothyloukas/Desktop/Project/3/restful-api/target/generated-test-sources/cucumber/Runner005.java
/Users/timothyloukas/Desktop/Project/3/restful-api/src/test/java/session/Session.java
/Users/timothyloukas/Desktop/Project/3/restful-api/src/test/java/helpers/ApiHelper.java
/Users/timothyloukas/Desktop/Project/3/restful-api/target/generated-test-sources/cucumber/Runner004.java
/Users/timothyloukas/Desktop/Project/3/restful-api/src/test/java/configuration/ConfigurationManager.java
/Users/timothyloukas/Desktop/Project/3/restful-api/src/test/java/steps/ItemsSteps.java
/Users/timothyloukas/Desktop/Project/3/restful-api/src/test/java/steps/TestBase.java
/Users/timothyloukas/Desktop/Project/3/restful-api/target/generated-test-sources/cucumber/Runner001.java
/Users/timothyloukas/Desktop/Project/3/restful-api/src/test/java/configuration/EnvironmentConfig.java
/Users/timothyloukas/Desktop/Project/3/restful-api/target/generated-test-sources/cucumber/Runner006.java
